Project 1
…
Table from dpplyr:

This table from dpplyr will list all of the jobs in the New York Location, and all of the other information from other columns. Neat!

filter(jobs, Location == "New York, NY")

## # A tibble: 310 x 15
##    `Job Title` `Salary Estimat `Job Descriptio Rating `Company Name` Location
##    <chr>       <fct>            <fct>             <dbl> <fct>          <chr>   
##  1 Data Analy $37K-$66K (Glas "Are you eager     3.2 "Vera Institu New Yor
##  2 Quality Da $37K-$66K (Glas "Overview\n\nPr    3.8 "Visiting Nur New Yor
##  3 Senior Dat $37K-$66K (Glas "Were looking     3.4 "Squarespace\ New Yor
##  4 Data Analy $37K-$66K (Glas "Requisition Nu    4.1 "Celerity\n4. New Yor
##  5 Reporting  $37K-$66K (Glas "ABOUT FANDUEL     3.9 "FanDuel\n3.9" New Yor
##  6 Data Analy $37K-$66K (Glas "About Cubist\n    3.9 "Point72\n3.9" New Yor
##  7 Business/D $37K-$66K (Glas "Two Sigma is a    4.4 "Two Sigma\n4 New Yor
##  8 Data Scien $37K-$66K (Glas "Data Science A    3.7 "GNY Insuranc New Yor
##  9 Data Analy $37K-$66K (Glas "The Data Analy    4   "DMGT\n4.0"    New Yor
## 10 Data Analy $37K-$66K (Glas "About Us\n\nRi    4.4 "Riskified\n4 New Yor
## #  with 300 more rows, and 9 more variables: Headquarters <chr>, Size <fct>,
## #   Founded <dbl>, `Type of ownership` <chr>, Industry <chr>, Sector <chr>,
## #   Revenue <fct>, Competitors <chr>, `Easy Apply` <fct>
…
